{
  "type": "farmersdelight:cutting",
  "ingredients": [
    {
      "item": "minecraft:cooked_salmon"
    }
  ],
  "tool": {
    "tag": "fabric:tools/knives"
  },
  "result": [
    {
      "item": "farmersdelight:cooked_salmon_slice",
      "count": 2
    },
    {
      "item": "minecraft:bone_meal"
    }
  ]
}