{
  "type": "farmersdelight:cutting",
  "ingredients": [
    {
      "item": "minecraft:porkchop"
    }
  ],
  "tool": {
    "tag": "fabric:tools/knives"
  },
  "result": [
    {
      "item": "farmersdelight:bacon",
      "count": 2
    }
  ]
}