{
  "type": "farmersdelight:cutting",
  "ingredients": [
    {
      "item": "farmersdelight:sweet_berry_cheesecake"
    }
  ],
  "tool": {
    "tag": "fabric:tools/knives"
  },
  "result": [
    {
      "item": "farmersdelight:sweet_berry_cheesecake_slice",
      "count": 4
    }
  ]
}